date,hydro_monthly_BC1
month_1,40027.2
month_2,37632
month_3,33628.8
month_4,28944
month_5,28048.8
month_6,26712
month_7,29760
month_8,30504
month_9,28080
month_10,26784
month_11,32976
month_12,37051.2
